Movies,Cleaning,Cooking,Games,Sports,Misc Items
10 Things I Hate About You,Brooms,Pots and pans,Twister,Billiards supplies,Umbrellas
21 Jump Street,Dustpans,Ice trays,Malarkey,Table Tennis supplies,
42,Swiffers,Cookie sheets,Loaded questions,Basketballs,
50 First Dates,Feather duster,Measuring cups,Rummikub,Volleyballs,
500 Days of Summer,Vacuums,Muffin trays,Fact or Fiction,Soccer balls,
Akeelah and The Bee,,Ladles,Pictionary,Kick balls,
Alfred Hitchcock (4-Disc Collection),,Spoons,Yahtzee,Small air pump,
American Gangster,,Waffle iron,Scattergories,Frisbees,
Anastasia,,Cake molds,Cranium,,
Anger Management,,Spatulas,Smart Ass,,
Austin Powers in Gold Member,,Ice cream scoop,Payday,,
The Avengers,,Blender,Logo,,
Beauty Shop,,Griddle,Stratego,,
Big Daddy,,,Apples to Apples,,
Argo,,,Connect Four,,
Big Trouble in Little China,,,Dominos,,
Black Swan,,,Scruples,,
Blades of Glory,,,Guesstures,,
The Blind Side,,,Disney,,
The Boondock Saints,,,Mad Gab,,
The Bounty Hunter,,,Are You Smarter than a 5th Grader,,
The Break Up,,,Texas Hold'em,,
Bridesmaids,,,Family Guy Trivia,,
The Bucket List,,,Scrabble,,
Caddy Shop,,,Life,,
Charlie's Angels,,,Buckopoly,,
Charlotte's Web,,,Disney Trivial Pursuit,,
Cinderella Man,,,Haikubes,,
Couple's Retreat,,,Battle of the Sexes,,
The Da Vinci Code,,,Sex & the City Trivia,,
The Dark Knight,,,Banana Grams,,
Days of Thunder,,,Buzz Word,,
Dear John,,,90s Trivial Pursuit,,
Disturbia ,,,Phase 10,,
Do the Right Thing,,,Boogle,,
Dream Girls,,,Chinese Checkers,,
The Dukes of Hazard,,,Sponge Bob puzzle,,
Dumb and Dumber,,,Balderdash,,
Easy A,,,Who Wants to be a Millionaire,,
Elf,,,Poker,,
The Expendables,,,Playdough,,
Extremely Loud and Incredibly Close,,,Uno,,
Ferngelly: The Last Rainforest,,,Playing Cards,,
Fireproof,,,Xbox Game: Guitar Hero World Tour,,
Four Colored Girls,,,,,
Forgetting Sarah Marshall ,,,,,
Friends with Benefits,,,,,
Get Him to the Greek,,,,,
Get Rich or Die Tryin',,,,,
Glory,,,,,
Grand Turino,,,,,
The Green Mile,,,,,
The Grudge,,,,,
The Hangover,,,,,
Harry Potter (1-6),,,,,
A Haunting in Connecticut,,,,,
Hitch,,,,,
Hocus Pocus,,,,,
The Holiday,,,,,
Hot Tub Time Machine,,,,,
The Hunger Games,,,,,
I Am Legend,,,,,
In Her Shoes,,,,,
Inception,,,,,
Inglorious Bastards,,,,,
Jackass,,,,,
Jackass 2,,,,,
Jeepers Creepers,,,,,
Jesus,,,,,
Juno,,,,,
Jurassic Park 3,,,,,
Knocked Up,,,,,
A League of Their Own,,,,,
Les Miserables,,,,,
Legally Blonde,,,,,
Lethal Weapon (1-4),,,,,
Life of Pi,,,,,
Lincoln,,,,,
Little Miss Sunshine,,,,,
Lord of the Rings (1-3),,,,,
Madagascar,,,,,
Madagascar 2: Escape to Africa,,,,,
Made of Honor ,,,,,
Magic Mike,,,,,
Malcolm X,,,,,
Master and Commander: The Far Side of the World,,,,,
Moneyball,,,,,
Mulan,,,,,
My Big Fat Greek Wedding,,,,,
My Cousin Vinny,,,,,
No Impact Man,,,,,
The Notebook,,,,,
Perfect Stranger,,,,,
The Perks of Being a Wallflower,,,,,
Peter Pan,,,,,
Pitch Perfect,,,,,
Pokémon: Advanced Battle,,,,,
Pride and Prejudice,,,,,
The Proposal,,,,,
The Pursuit of Happyness,,,,,
Remember the Titans,,,,,
Radio,,,,,
Reservoir Dogs,,,,,
Robin Hood (Blu-Ray and DVD),,,,,
Rush Hour (1-2),,,,,
Rush Hour 3 / Money Talks,,,,,
Saw I-II,,,,,
School of Rock,,,,,
Seven,,,,,
Seven Pounds,,,,,
Sex and the City,,,,,
Sherlock Holmes,,,,,
She's the Man,,,,,
Shutter,,,,,
Silver Linings Playbook,,,,,
Skyfall,,,,,
Sleepless in Seattle,,,,,
Slumdog Millionaire ,,,,,
Spiderman (1-2),,,,,
Star Trek,,,,,
Star Wars 5-6,,,,,
Taken,,,,,
Ted,,,,,
Tommy Boy,,,,,
Toy Story 3,,,,,
Transformers,,,,,
Tristan and Isolde ,,,,,
Troy,,,,,
Twilight,,,,,
Twilight: New Moon,,,,,
UFC: Supernatural,,,,,
Valentine's Day,,,,,
The Vow,,,,,
Wall-E,,,,,
Wedding Crashers,,,,,
Welcome to Mooseport,,,,,
When Harry Met Sally,,,,,
Wreck It Ralph,,,,,
"You, Me, and Dupree",,,,,
"Yours, Mine, and Ours",,,,,
Zombie Land,,,,,
